%YAML 1.1
%TAG !u! tag:unity3d.com,2011:
--- !u!114 &11400000
MonoBehaviour:
  m_ObjectHideFlags: 0
  m_PrefabParentObject: {fileID: 0}
  m_PrefabInternal: {fileID: 0}
  m_GameObject: {fileID: 0}
  m_Enabled: 1
  m_EditorHideFlags: 0
  m_Script: {fileID: 11500000, guid: cda0b77b738c83d4d9bfdea6d6b23f7b, type: 3}
  m_Name: DefaultConsoleProfileDatas
  m_EditorClassIdentifier: 
  saveAsJSON: 0
  loadAsJSON: 0
  loadFromExternalJSON: 0
  serialisedObjectName: 
  textAssetProfiles:
  - {fileID: 4900000, guid: 156f8525e9bb8c44ea64a1a1bb8093f3, type: 3}
