typeName,nameInConsole,bindingFlags,partsToBind
ConsoleStaticCommandsTest,,"DeclaredOnly, Static, Public","Methods, Props, Fields"
UnityEngine.Time,Time,"DeclaredOnly, Static, Public","Methods, Props, Fields"
UnityEngine.Physics,Physics,"DeclaredOnly, Static, Public","Methods, Props, Fields"
